[
  {
    "id": 0,
    "title": "task one",
    "description": "Lorem Ipsum",
    "done": false
  },
  {
    "id": 1,
    "title": "task two",
    "description": "Lorem Ipsum",
    "done": true
  },
  {
    "id": 2,
    "title": "task three",
    "description": "Lorem Ipsum",
    "done": false
  }
]
